887515394
1741185794
403779970
1387042061
1633314705
1245746834
425153043
1201355029
1339366167
1104136473
278837018
745552028
1747481892
1477066535
1472593458
342719540
777314619
1799937596
923262401
909468868
1236771535
802086864
1866070353
1292299216
548366931
1822680663
1232749531
824729827
336445291
1668163180
1067095787
1461963376
398776435
1261022837
752241014
1864090743
172532089
1848986367
